mypackage/Test1$3.class
mypackage/Test3.class
mypackage/Person.class
mypackage/Test1.class
mypackage/StandardFeedSchema.class
mypackage/Test1$2.class
mypackage/MainSpark1.class
mypackage/Test1$1.class
mypackage/Test2$1.class
mypackage/Test2.class
mypackage/SegmentFeedSchema.class
mypackage/Test3$1.class
mypackage/Main.class
